…
``` r
Idents(seurat.obj) <- "tags"
marks.tags <- FindMarkers(object = seurat.obj, ident.1 = 'quiescent', ident.2 = 'dividing', 
                          logfc.threshold = 0, test.use = "wilcox", min.pct = 0.1, 
                          slot = "counts")

marks.tags %>% 
  rownames_to_column("genes") %>% 
  as_tibble -> marks.tags

marks.tags
```

    ## # A tibble: 6,034 x 6
    ##    genes       p_val avg_log2FC pct.1 pct.2 p_val_adj
    ##    <chr>       <dbl>      <dbl> <dbl> <dbl>     <dbl>
    ##  1 Rps19   2.97e-134      0.348 0.98  0.983 9.22e-130
    ##  2 Rps20   9.01e-127      0.373 0.986 0.986 2.80e-122
    ##  3 mt-Cytb 1.41e-117      0.313 1     1     4.36e-113
    ##  4 Rps16   4.09e-112      0.289 0.983 0.982 1.27e-107
    ##  5 Rps8    3.21e-110      0.310 0.983 0.983 9.97e-106
    ##  6 Rps29   6.70e- 99      0.300 0.978 0.978 2.08e- 94
    ##  7 Rps24   7.70e- 99      0.268 0.985 0.985 2.39e- 94
    ##  8 Rpl12   2.17e- 97      0.278 0.979 0.982 6.74e- 93
    ##  9 Rplp1   3.86e- 96      0.303 0.976 0.975 1.20e- 91
    ## 10 Tpt1    6.79e- 96      0.253 0.985 0.985 2.11e- 91
    ## # … with 6,024 more rows
…
## Pathway analysis

Now we check if we can find DE pathways. Make use of the `fgsea` package
for pathway testing and the `msigdbr` package to import the pathways.

First import the C7 immunological pathways.

``` r
pathways <- as_tibble(msigdbr(species = "Mus musculus", category = "C7"))

pathways
```

    ## # A tibble: 921,461 x 17
    ##    gs_cat gs_subcat gs_name             entrez_gene gene_symbol human_entrez_ge…
    ##    <chr>  <chr>     <chr>                     <int> <chr>                  <int>
    ##  1 C7     ""        GOLDRATH_EFF_VS_ME…       11305 Abca2                     20
    ##  2 C7     ""        GOLDRATH_EFF_VS_ME…       27416 Abcc5                  10057
    ##  3 C7     ""        GOLDRATH_EFF_VS_ME…       68644 Abhd14a                25864
    ##  4 C7     ""        GOLDRATH_EFF_VS_ME…       11364 Acadm                     34
    ##  5 C7     ""        GOLDRATH_EFF_VS_ME…       11433 Acp5                      54
    ##  6 C7     ""        GOLDRATH_EFF_VS_ME…       66659 Acp6                   51205
    ##  7 C7     ""        GOLDRATH_EFF_VS_ME…       11496 Adam22                 53616
    ##  8 C7     ""        GOLDRATH_EFF_VS_ME…       11513 Adcy7                    113
    ##  9 C7     ""        GOLDRATH_EFF_VS_ME…       54672 Adgrg3                222487
    ## 10 C7     ""        GOLDRATH_EFF_VS_ME…      100986 Akap9                  10142
    ## # … with 921,451 more rows, and 11 more variables: human_gene_symbol <chr>,
    ## #   gs_id <chr>, gs_pmid <chr>, gs_geoid <chr>, gs_exact_source <chr>,
    ## #   gs_url <chr>, gs_description <chr>, species_name <chr>,
    ## #   species_common_name <chr>, ortholog_sources <chr>,
    ## #   num_ortholog_sources <dbl>
…
