…
Extract the coordinates from the `sc_x` and `sc_y` slots.

And join with MetaCell identities, these are stored in the `mc` object.

``` r
mc2d@sc_x %>% 
  enframe("cellcode", "MC_x") %>% 
  full_join(enframe(mc2d@sc_y, "cellcode", "MC_y")) %>% 
  left_join(enframe(mc@mc, "cellcode", "MetaCell")) -> coords

coords
```

    ## # A tibble: 9,702 x 4
    ##    cellcode            MC_x  MC_y MetaCell
    ##    <chr>              <dbl> <dbl>    <int>
    ##  1 AAACCCAAGACCATTC-1  84.9  78.7        3
    ##  2 AAACCCAAGATTCGCT-1 190.  134.         6
    ##  3 AAACCCACAACCACAT-1  53.4 211.        18
    ##  4 AAACCCACAGGCTATT-1 111.   52.8        7
    ##  5 AAACCCAGTCGAGTGA-1 244.  135.         5
    ##  6 AAACCCATCCACGAAT-1 241.  117.         5
    ##  7 AAACCCATCCATAAGC-1 305.  111.        15
    ##  8 AAACCCATCGATACGT-1 109.  171.        18
    ##  9 AAACGAAAGACCACGA-1 184.  283.        11
    ## 10 AAACGAAAGCTGACTT-1 248.  132.         5
    ## # … with 9,692 more rows
…
``` r
clean.mat@cell_metadata %>% 
  rownames_to_column("cellcode") %>% 
  as_tibble() %>% 
  select(cellcode, hash.ID) %>% 
  mutate(hash.ID = fct_recode(hash.ID, 
                              LO_GFP = "MSC15-1", 
                              LO_Ai9 = "MSC15-2", 
                              HI_GFP = "MSC15-3",
                              HI_Ai9 = "MSC15-4")) -> hashtags
hashtags
```

    ## # A tibble: 13,064 x 2
    ##    cellcode           hash.ID
    ##    <chr>              <fct>  
    ##  1 AAACCCAAGACCATTC-1 HI_Ai9 
    ##  2 AAACCCAAGATTCGCT-1 LO_Ai9 
    ##  3 AAACCCAAGGTGATCG-1 Doublet
    ##  4 AAACCCAAGTCCCAGC-1 HI_GFP 
    ##  5 AAACCCACAACCACAT-1 LO_Ai9 
    ##  6 AAACCCACAGGCTATT-1 HI_Ai9 
    ##  7 AAACCCAGTCGAGTGA-1 HI_GFP 
    ##  8 AAACCCATCCACGAAT-1 HI_GFP 
    ##  9 AAACCCATCCATAAGC-1 HI_GFP 
    ## 10 AAACCCATCGATACGT-1 HI_Ai9 
    ## # … with 13,054 more rows

Now join that table with the MetaCell identities, stored in the `mc`
object.

``` r
mc@mc %>% 
  enframe("cellcode", "MetaCell") %>% 
  left_join(hashtags) -> mc.hashtag.table

mc.hashtag.table
```

    ## # A tibble: 9,702 x 3
    ##    cellcode           MetaCell hash.ID
    ##    <chr>                 <int> <fct>  
    ##  1 AAACCCAAGACCATTC-1        3 HI_Ai9 
    ##  2 AAACCCAAGATTCGCT-1        6 LO_Ai9 
    ##  3 AAACCCACAACCACAT-1       18 LO_Ai9 
    ##  4 AAACCCACAGGCTATT-1        7 HI_Ai9 
    ##  5 AAACCCAGTCGAGTGA-1        5 HI_GFP 
    ##  6 AAACCCATCCACGAAT-1        5 HI_GFP 
    ##  7 AAACCCATCCATAAGC-1       15 HI_GFP 
    ##  8 AAACCCATCGATACGT-1       18 HI_Ai9 
    ##  9 AAACGAAAGACCACGA-1       11 HI_GFP 
    ## 10 AAACGAAAGCTGACTT-1        5 HI_Ai9 
    ## # … with 9,692 more rows

Now count the number of cells per MetaCell-hashtag combination, and
normalize within hashtags.

``` r
mc.hashtag.table %>%
  count(MetaCell, hash.ID)%>%
  group_by(hash.ID)%>%
  mutate(normalized.count = (n/sum(n))*1000 ) -> mc.hashtag.counts 

mc.hashtag.counts
```

    ## # A tibble: 84 x 4
    ## # Groups:   hash.ID [4]
    ##    MetaCell hash.ID     n normalized.count
    ##       <int> <fct>   <int>            <dbl>
    ##  1        1 LO_GFP     94             42.1
    ##  2        1 LO_Ai9     73             33.4
    ##  3        1 HI_GFP    105             35.7
    ##  4        1 HI_Ai9    109             46.6
    ##  5        2 LO_GFP     75             33.6
    ##  6        2 LO_Ai9     80             36.6
    ##  7        2 HI_GFP    257             87.3
    ##  8        2 HI_Ai9    211             90.2
    ##  9        3 LO_GFP    130             58.2
    ## 10        3 LO_Ai9    125             57.2
    ## # … with 74 more rows
…
Can then calculate the ratio between CTV<sup>LO</sup> and
CTV<sup>HI</sup> cells, for each MetaCell and for both sample origins.

``` r
mc.hashtag.counts %>% 
  separate(hash.ID, into = c("CTVint", "origin")) %>% 
  group_by(MetaCell, origin) %>% 
  summarize(ratio = normalized.count[CTVint == "LO"] / normalized.count[CTVint == "HI"]) -> ratio.HiLo 

ratio.HiLo
```

    ## # A tibble: 42 x 3
    ## # Groups:   MetaCell [21]
    ##    MetaCell origin ratio
    ##       <int> <chr>  <dbl>
    ##  1        1 Ai9    0.717
    ##  2        1 GFP    1.18 
    ##  3        2 Ai9    0.406
    ##  4        2 GFP    0.384
    ##  5        3 Ai9    0.998
    ##  6        3 GFP    1.03 
    ##  7        4 Ai9    0.866
    ##  8        4 GFP    0.851
    ##  9        5 Ai9    0.233
    ## 10        5 GFP    0.204
    ## # … with 32 more rows
…
``` r
selection.vars <- c("genes", "2", "5", "19", "20")

mc@mc_fp %>% 
  as_tibble(rownames = "genes" ) %>% 
  mutate(across(where(is.numeric), log2)) %>% 
  select(all_of(selection.vars)) -> lfp

lfp
```

    ## # A tibble: 12,386 x 5
    ##    genes              `2`      `5`     `19`     `20`
    ##    <chr>            <dbl>    <dbl>    <dbl>    <dbl>
    ##  1 Mrpl15         0       -0.0474  -0.0499  -0.0809 
    ##  2 Lypla1         0.0841   0.0299  -0.0220   0.0102 
    ##  3 Tcea1          0.0552  -0.0243   0.0218  -0.0567 
    ##  4 Gm16041       -0.00187  0        0.00214  0.00238
    ##  5 Atp6v1h        0.0513   0.0114  -0.00234 -0.0361 
    ##  6 Rb1cc1         0.110    0.104   -0.0748   0.254  
    ##  7 4732440D04Rik  0.104   -0.00212 -0.00745  0.0468 
    ##  8 Pcmtd1         0.0984   0.0543  -0.149    0.0384 
    ##  9 Gm26901       -0.00357 -0.00483 -0.0159  -0.00671
    ## 10 Rrs1          -0.0474  -0.0561   0.0365  -0.0570 
    ## # … with 12,376 more rows
Filter the table for immune-related genes, make the columns IDs a bit
tidier, and switch to long data.

``` r
immune.genes <- read_rds(here("Data", "immune_genes.rds"))

lfp %>% 
  filter(genes %in% immune.genes) %>% 
  rename_with(~paste0("MC", .x), where(is.numeric)) %>% 
  pivot_longer(starts_with("MC"), names_to = "MetaCell", values_to = "lfp") -> lfp.long

lfp.long
```

    ## # A tibble: 1,492 x 3
    ##    genes  MetaCell      lfp
    ##    <chr>  <chr>       <dbl>
    ##  1 Mybl1  MC2       0.00499
    ##  2 Mybl1  MC5      -0.00475
    ##  3 Mybl1  MC19     -0.00461
    ##  4 Mybl1  MC20     -0.00662
    ##  5 Ly96   MC2       0.00868
    ##  6 Ly96   MC5       0.0258 
    ##  7 Ly96   MC19      0.00466
    ##  8 Ly96   MC20      0.00808
    ##  9 Il1rl2 MC2      -0.00270
    ## 10 Il1rl2 MC5       0.00272
    ## # … with 1,482 more rows
…
``` r
lfp.long %>% 
  group_by(MetaCell) %>% 
  filter(dense_rank(lfp) <= 6 | dense_rank(desc(lfp)) <= 6) %>%
  ungroup() %>% 
  mutate(genes = reorder_within(genes, lfp, MetaCell) ) -> to.plot

to.plot
```

    ## # A tibble: 48 x 3
    ##    genes         MetaCell    lfp
    ##    <fct>         <chr>     <dbl>
    ##  1 Bcl2___MC5    MC5      -0.272
    ##  2 Itga4___MC2   MC2       0.444
    ##  3 Itga4___MC20  MC20      0.281
    ##  4 Il6ra___MC2   MC2      -0.166
    ##  5 Il6ra___MC5   MC5      -0.112
    ##  6 Il6ra___MC20  MC20      0.275
    ##  7 S100a4___MC2  MC2       0.630
    ##  8 S100a4___MC5  MC5       1.59 
    ##  9 S100a6___MC5  MC5       0.872
    ## 10 S100a6___MC19 MC19     -1.14 
    ## # … with 38 more rows
…
