…
Get coordinates from the graph object and join with the expression data.

``` r
coords <- tibble( cellcode = names(MC.graph@sc_y),
                  sc.x = MC.graph@sc_x,
                  sc.y = MC.graph@sc_y)
coords
```

    ## # A tibble: 1,987 x 3
    ##    cellcode             sc.x  sc.y
    ##    <chr>               <dbl> <dbl>
    ##  1 TGACGGCCATATGCTG-24  45.2 105. 
    ##  2 AGATCTGTCTGTCTCG-24  64.8  75.8
    ##  3 AGGGATGCAGCCAATT-24  78.2  82.5
    ##  4 CGGACACCAGGAATCG-24  43.8 111. 
    ##  5 CTCGTCAAGTAGTGCG-24  47.8  84.3
    ##  6 CAACCTCGTTGGGACA-24  75.5  84.2
    ##  7 GGGCATCAGGGATGGG-24  54.8 109. 
    ##  8 GACTAACTCAGCTCTC-24  28.6 104. 
    ##  9 TGTGGTAGTACCGAGA-24  47.4  90.9
    ## 10 TCAGCAATCGGATGTT-24  66.8  82.1
    ## # … with 1,977 more rows
…
``` r
plot.genes <- c("Bcl2", "Il7r", "Sell", "Klrg1", "Cx3cr1", "Gzmb")
plot.data %>% 
  left_join(enframe(as.factor(mc@mc), "cellcode", "MC")) %>% 
  mutate(phenotype = case_when(MC == "5" ~ "TEM",
                               TRUE ~ "TCM")) %>% 
  select(one_of(c(plot.genes, "MC", "phenotype")) ) %>% 
  pivot_longer(cols = -c("MC", "phenotype"),  names_to = "gene", values_to = "expression") %>% 
  mutate(gene = factor(gene, plot.genes))  -> for.violins

for.violins
```

    ## # A tibble: 11,922 x 4
    ##    MC    phenotype gene   expression
    ##    <fct> <chr>     <fct>       <dbl>
    ##  1 1     TCM       Bcl2        0.903
    ##  2 1     TCM       Il7r        0.774
    ##  3 1     TCM       Sell        0    
    ##  4 1     TCM       Klrg1       0    
    ##  5 1     TCM       Cx3cr1      0    
    ##  6 1     TCM       Gzmb        0    
    ##  7 1     TCM       Bcl2        0.682
    ##  8 1     TCM       Il7r        0    
    ##  9 1     TCM       Sell        0    
    ## 10 1     TCM       Klrg1       0    
    ## # … with 11,912 more rows
…
Join the tibbles, first select the MetaCells from the Kurd data that
we’re interested in, then join wiht the DivisionRecorder data. Also,
rename both sets.

``` r
lfp %>% 
  select(one_of( c("genes", "1", "3", "6", "7"))) %>% 
  rename_with( ~paste0("Kurd", .), where(is_numeric) ) %>% 
  inner_join(lfp.DivRec) %>% 
  rename_with( ~paste0("DivRec", .), all_of(as.character(1:23)) ) -> combined.data

combined.data
```

    ## # A tibble: 9,003 x 28
    ##    genes      Kurd1    Kurd3    Kurd6   Kurd7  DivRec1  DivRec2 DivRec3  DivRec4
    ##    <chr>      <dbl>    <dbl>    <dbl>   <dbl>    <dbl>    <dbl>   <dbl>    <dbl>
    ##  1 Mrpl15  -1.19e-1 -0.0385   0.0256   0      -0.0804   0.0495  -0.0284  0.0863 
    ##  2 Lypla1  -1.49e-2 -0.0383   0.0102   0      -0.0345  -0.0189  -0.0193 -0.0255 
    ##  3 Tcea1    2.82e-2 -0.0409  -0.0570  -0.0367 -0.0467  -0.0407  -0.0781 -0.0418 
    ##  4 Atp6v1h -2.72e-2  0.0954   0.0579  -0.0356 -0.0388  -0.0479  -0.0412 -0.0434 
    ##  5 Rb1cc1  -2.36e-2  0.153    0       -0.0419  0.0133  -0.0498  -0.0275 -0.196  
    ##  6 Pcmtd1  -1.20e-1 -0.0607   0.0429  -0.0520  0.00514 -0.00347 -0.0131 -0.159  
    ##  7 Rrs1     9.52e-2 -0.0857   0.00599 -0.0173 -0.0827   0.0464  -0.0584  0.0541 
    ##  8 Vcpip1   8.78e-2 -0.00701 -0.0341   0.0141 -0.0582   0.0120  -0.0292 -0.0965 
    ##  9 Sgk3    -4.38e-4  0.0295   0.0220   0.0214 -0.0164   0.0229   0      -0.00192
    ## 10 Snhg6    0       -0.132   -0.0327   0.0586  0.0691   0.0616   0.0786  0.0640 
    ## # … with 8,993 more rows, and 19 more variables: DivRec5 <dbl>, DivRec6 <dbl>,
    ## #   DivRec7 <dbl>, DivRec8 <dbl>, DivRec9 <dbl>, DivRec10 <dbl>,
    ## #   DivRec11 <dbl>, DivRec12 <dbl>, DivRec13 <dbl>, DivRec14 <dbl>,
    ## #   DivRec15 <dbl>, DivRec16 <dbl>, DivRec17 <dbl>, DivRec18 <dbl>,
    ## #   DivRec19 <dbl>, DivRec20 <dbl>, DivRec21 <dbl>, DivRec22 <dbl>,
    ## #   DivRec23 <dbl>
Now calculate the correlations between Kurd MetaCells and the DivRec
MetaCells, focusing on our selected genes. `rstatix::cor_test()` has a
nice implementation to compare specific columns with each other using
`tidyselect` verbs.

``` r
combined.data %>% 
  filter(genes %in% focus.genes) %>% 
  cor_test(vars = contains("Kurd"), vars2 =  contains("DivRec"), method = "pearson") %>% 
  adjust_pvalue(p.col = "p", output.col = "p.adj", method = "bonferroni") -> correlations

correlations
```

    ## # A tibble: 92 x 9
    ##    var1  var2        cor statistic        p conf.low conf.high method     p.adj
    ##    <chr> <chr>     <dbl>     <dbl>    <dbl>    <dbl>     <dbl> <chr>      <dbl>
    ##  1 Kurd1 DivRec1  -0.027    -0.460 6.46e- 1  -0.140     0.0871 Pearson 1   e+ 0
    ##  2 Kurd1 DivRec2   0.62     13.5   1.21e-32   0.541     0.683  Pearson 1.11e-30
    ##  3 Kurd1 DivRec3   0.5       9.94  2.83e-20   0.410     0.581  Pearson 2.60e-18
    ##  4 Kurd1 DivRec4   0.28      5.06  7.34e- 7   0.174     0.384  Pearson 6.75e- 5
    ##  5 Kurd1 DivRec5   0.095     1.63  1.03e- 1  -0.0193    0.206  Pearson 1   e+ 0
    ##  6 Kurd1 DivRec6  -0.2      -3.54  4.67e- 4  -0.308    -0.0899 Pearson 4.30e- 2
    ##  7 Kurd1 DivRec7  -0.009    -0.154 8.77e- 1  -0.122     0.105  Pearson 1   e+ 0
    ##  8 Kurd1 DivRec8   0.24      4.16  4.14e- 5   0.125     0.340  Pearson 3.81e- 3
    ##  9 Kurd1 DivRec9   0.47      9.12  1.21e-17   0.375     0.552  Pearson 1.11e-15
    ## 10 Kurd1 DivRec10  0.2       3.44  6.71e- 4   0.0842    0.303  Pearson 6.17e- 2
    ## # … with 82 more rows
…
