…
UMI.data.1 %>% 
  bind_rows(UMI.data.2) -> all.UMI.counts
all.UMI.counts
```

    ## # A tibble: 39,551 × 31,054
    ##    cellcode  Xkr4 Gm1992 Gm37381   Rp1 Sox17 Gm37323 Mrpl15 Lypla1 Gm37988 Tcea1
    ##    <chr>    <dbl>  <dbl>   <dbl> <dbl> <dbl>   <dbl>  <dbl>  <dbl>   <dbl> <dbl>
    ##  1 AAACCCA…     0      0       0     0     0       0  0.867  0.598       0 0.531
    ##  2 AAACCCA…     0      0       0     0     0       0  0      0           0 0.876
    ##  3 AAACCCA…     0      0       0     0     0       0  0.525  0           0 0.531
    ##  4 AAACCCA…     0      0       0     0     0       0  0.525  0.598       0 0    
    ##  5 AAACGAA…     0      0       0     0     0       0  0      0           0 0    
    ##  6 AAACGAA…     0      0       0     0     0       0  0      0           0 0    
    ##  7 AAACGCT…     0      0       0     0     0       0  0.525  0           0 0    
    ##  8 AAAGAAC…     0      0       0     0     0       0  0      0           0 1.34 
    ##  9 AAAGGAT…     0      0       0     0     0       0  0      0           0 0.531
    ## 10 AAAGGGC…     0      0       0     0     0       0  0.525  0           0 0    
    ## # … with 39,541 more rows, and 31,043 more variables: Rgs20 <dbl>,
    ## #   Gm16041 <dbl>, Atp6v1h <dbl>, Oprk1 <dbl>, Npbwr1 <dbl>, Rb1cc1 <dbl>,
    ## #   4732440D04Rik <dbl>, Alkal1 <dbl>, St18 <dbl>, Pcmtd1 <dbl>, Gm26901 <dbl>,
    ## #   Gm30414 <dbl>, Sntg1 <dbl>, Rrs1 <dbl>, Adhfe1 <dbl>, 3110035E14Rik <dbl>,
    ## #   Gm29520 <dbl>, Mybl1 <dbl>, Vcpip1 <dbl>, 1700034P13Rik <dbl>, Sgk3 <dbl>,
    ## #   Mcmdc2 <dbl>, Snhg6 <dbl>, Tcf24 <dbl>, Ppp1r42 <dbl>, Gm15818 <dbl>,
    ## #   Cops5 <dbl>, Cspp1 <dbl>, Arfgef1 <dbl>, Cpa6 <dbl>, Prex2 <dbl>, …
…
``` r
eff.genes <-c("Tbx21", "Prdm1", "Id2", "Gzmb", "Klrg1", "Cx3cr1", "Prf1", "Lgals1","Ifng")
mult.genes <- c("Eomes", "Il7r","Sell", "Tcf7", "Bcl2", "Ccr7","Myb", "Bach2")
```

Get the coordinates from the 2D object, store as tibble.

``` r
coords <- tibble( cellcode = names(MC.graph@sc_y),
                  sc.x = MC.graph@sc_x,
                  sc.y = MC.graph@sc_y)
coords
```

    ## # A tibble: 27,559 × 3
    ##    cellcode              sc.x  sc.y
    ##    <chr>                <dbl> <dbl>
    ##  1 AAACCCACAACACGTT-1_1 277.   237.
    ##  2 AAACCCACAATTTCTC-1_1 234.   311.
    ##  3 AAACCCACACTCAAGT-1_1 247.   296.
    ##  4 AAACCCAGTGCTCGTG-1_1 254.   311.
    ##  5 AAACGAAAGAAGAGCA-1_1 315.   166.
    ##  6 AAACGAAAGTCGGCCT-1_1 241.   307.
    ##  7 AAACGAACACCTGCTT-1_1 238.   301.
    ##  8 AAACGAACAGCCGTCA-1_1  38.0  291.
    ##  9 AAACGAAGTCACTACA-1_1 211.   327.
    ## 10 AAACGAAGTGCTATTG-1_1 310.   292.
    ## # … with 27,549 more rows
…
enframe(as.factor(mc@mc), name = "cellcode", value = "MC") %>% 
  right_join(all.UMI.counts) %>% 
  mutate(phenotype = case_when(MC %in% c('21','19','17','20') ~ "Tem",
                               TRUE ~ "Tcm") ) %>% 
  select(one_of(c(to.plot, "MC", "phenotype")) ) %>% 
  pivot_longer(cols = one_of(c(to.plot, "multipo", "effector")), names_to =  "gene", values_to = "expression") %>% 
  mutate(gene = factor(gene, to.plot)) %>% 
  na.omit() %>% 
  filter(expression < 20)-> for.violins
for.violins
```

    ## # A tibble: 220,426 × 4
    ##    MC    phenotype gene     expression
    ##    <fct> <chr>     <fct>         <dbl>
    ##  1 14    Tcm       Bcl2          1.77 
    ##  2 14    Tcm       Il7r          0.888
    ##  3 14    Tcm       Sell          0.470
    ##  4 14    Tcm       multipo       6.45 
    ##  5 14    Tcm       Klrg1         0    
    ##  6 14    Tcm       Cx3cr1        0    
    ##  7 14    Tcm       Gzmb          0    
    ##  8 14    Tcm       effector      1.81 
    ##  9 16    Tcm       Bcl2          1.39 
    ## 10 16    Tcm       Il7r          0.821
    ## # … with 220,416 more rows
…
as.data.frame(lfp) %>% 
  rownames_to_column("genes") %>% 
  as_tibble() %>% 
  dplyr::filter(genes %in% select.genes) %>% 
  mutate(genes = factor(genes, levels = select.genes)) %>% 
  pivot_longer(cols = -genes, names_to = "metacell", values_to =  "lfp") %>% 
  mutate(cluster = factor(fct_collapse(.$metacell,
                                       eff = c('23','15','22','8','6','10','4','5','7','18'),
                                       mult = c('9','1','12','13','14','16','11','2','3'),
                                       term = c('21','19','17','20')), 
                          levels = c("term", "eff", "mult")  ) ) -> to.plot
to.plot
```

    ## # A tibble: 276 × 4
    ##    genes metacell     lfp cluster
    ##    <fct> <chr>      <dbl> <fct>  
    ##  1 Bcl2  1         0.290  mult   
    ##  2 Bcl2  2        -0.152  mult   
    ##  3 Bcl2  3        -0.0192 mult   
    ##  4 Bcl2  4        -0.117  eff    
    ##  5 Bcl2  5        -0.0272 eff    
    ##  6 Bcl2  6        -0.0106 eff    
    ##  7 Bcl2  7         0      eff    
    ##  8 Bcl2  8         0.121  eff    
    ##  9 Bcl2  9         0.218  mult   
    ## 10 Bcl2  10       -0.287  eff    
    ## # … with 266 more rows
``` r
write_tsv(to.plot, here("Output", "Fig_4c.tsv"))
```

Next, calculate some statistics using the `rstatix` package.

``` r
to.plot %>%
  group_by(genes) %>%
  tukey_hsd(lfp ~ cluster)%>%
  add_y_position(scales = "free_y", fun = "max", step.increase = 0.2) -> stat.test
stat.test
```

    ## # A tibble: 36 × 12
    ##    genes  term    group1 group2 null.value estimate conf.low conf.high    p.adj
    ##    <fct>  <chr>   <chr>  <chr>       <dbl>    <dbl>    <dbl>     <dbl>    <dbl>
    ##  1 Klrg1  cluster term   eff             0  -0.872    -1.13     -0.613 1.33e- 7
    ##  2 Klrg1  cluster term   mult            0  -0.899    -1.16     -0.635 1.06e- 7
    ##  3 Klrg1  cluster eff    mult            0  -0.0264   -0.228     0.175 9.41e- 1
    ##  4 Cx3cr1 cluster term   eff             0  -1.34     -1.62     -1.06  3.44e-10
    ##  5 Cx3cr1 cluster term   mult            0  -1.38     -1.67     -1.10  2.68e-10
    ##  6 Cx3cr1 cluster eff    mult            0  -0.0404   -0.258     0.177 8.86e- 1
    ##  7 Gzma   cluster term   eff             0  -1.01     -1.66     -0.356 2.4 e- 3
    ##  8 Gzma   cluster term   mult            0  -1.02     -1.69     -0.360 2.43e- 3
    ##  9 Gzma   cluster eff    mult            0  -0.0146   -0.521     0.492 9.97e- 1
    ## 10 Zeb2   cluster term   eff             0  -2.42     -2.80     -2.04  2.04e-12
    ## # … with 26 more rows, and 3 more variables: p.adj.signif <chr>,
    ## #   y.position <dbl>, groups <named list>
…
