…
``` r
as.data.frame(lfp) %>% 
  select(one_of(c('2','11','14', '6','8','18'))) %>% 
  rownames_to_column("genes") %>%
  filter(genes %in% imm.genes) %>% 
  pivot_longer(cols = -genes, names_to = "MC", values_to =  "lfp") %>%
  mutate(MC = factor(MC, levels =c('2','11','14', '6','8','18'))) -> filtered.lfp

filtered.lfp
```

    ## # A tibble: 2,604 x 3
    ##    genes MC         lfp
    ##    <chr> <fct>    <dbl>
    ##  1 Mybl1 2      0.00377
    ##  2 Mybl1 11    -0.00205
    ##  3 Mybl1 14     0      
    ##  4 Mybl1 6     -0.00447
    ##  5 Mybl1 8      0.00225
    ##  6 Mybl1 18     0.00549
    ##  7 Ly96  2     -0.00289
    ##  8 Ly96  11     0.00656
    ##  9 Ly96  14    -0.00483
    ## 10 Ly96  6     -0.00417
    ## # … with 2,594 more rows
…
Finally, used `tidytext::reorder_within` to properly order the gene
factor-levels by enrichment-value within each MetaCell.

``` r
filtered.lfp %>% 
  group_by(MC) %>% 
  filter(dense_rank(lfp) <= 5 | dense_rank(desc(lfp)) <= 5) %>% #get top and bottom 5
  ungroup() %>% 
  mutate(genes = reorder_within(genes, lfp, MC) ) -> filtered.lfp

filtered.lfp
```

    ## # A tibble: 60 x 3
    ##    genes      MC       lfp
    ##    <fct>      <fct>  <dbl>
    ##  1 Bcl2___8   8      0.121
    ##  2 Cd55___2   2      0.121
    ##  3 Sell___2   2      0.182
    ##  4 Sell___14  14     0.356
    ##  5 Sell___18  18    -0.135
    ##  6 Xcl1___2   2      0.115
    ##  7 Xcl1___11  11     0.371
    ##  8 Cd48___14  14    -0.236
    ##  9 Itga4___2  2     -0.285
    ## 10 Itga4___14 14     0.279
    ## # … with 50 more rows
…
# Perform DE-analysis
marks <- FindMarkers(object = seurat.memory , ident.1 = 'Tcm.low', ident.2 = 'Tcm.high', 
                     logfc.threshold = 0, test.use = "wilcox", min.pct = 0.1, slot = "counts")

marks %>% 
  rownames_to_column("genes") %>% 
  as_tibble() -> marks

marks
```

    ## # A tibble: 5,787 x 6
    ##    genes      p_val avg_log2FC pct.1 pct.2 p_val_adj
    ##    <chr>      <dbl>      <dbl> <dbl> <dbl>     <dbl>
    ##  1 Lgals1  3.29e-90     -0.614 0.84  0.949  1.02e-85
    ##  2 Vim     2.13e-85     -0.620 0.749 0.9    6.63e-81
    ##  3 S100a6  7.15e-82     -0.546 0.935 0.989  2.22e-77
    ##  4 Xist    3.79e-79      0.738 0.646 0.355  1.18e-74
    ##  5 Gm42418 6.03e-79      0.458 0.985 0.967  1.87e-74
    ##  6 Tmsb10  5.77e-76     -0.310 1     1      1.79e-71
    ##  7 Tmsb4x  3.35e-72     -0.217 1     1      1.04e-67
    ##  8 Crip1   2.55e-67     -0.427 0.974 0.997  7.93e-63
    ##  9 Actg1   2.11e-44     -0.288 0.999 1      6.54e-40
    ## 10 Emp3    1.14e-42     -0.299 0.885 0.948  3.55e-38
    ## # … with 5,777 more rows
…
Also add some genes of interest to label in the plot.

``` r
marks %>% 
  mutate(sig = case_when((avg_log2FC < -0.1 | avg_log2FC > 0.1) & p_val_adj < 0.05 ~ "sig", 
                         TRUE ~ "ns") )%>% 
  mutate(sig = factor(sig, levels = c("sig", "ns"))) %>% 
  # select a couple of informative genes for highlighting and labeling
  mutate(to.label = genes %in% c("Il7r", "Tcf7", "Ltb", "Klf3", "Vim", "Lgals1", 
                                 "S100a4", "Nkg7","S100a6","Crip1", "Gzmb", "Ccr2")) -> to.plot

to.plot
```

    ## # A tibble: 5,787 x 8
    ##    genes      p_val avg_log2FC pct.1 pct.2 p_val_adj sig   to.label
    ##    <chr>      <dbl>      <dbl> <dbl> <dbl>     <dbl> <fct> <lgl>   
    ##  1 Lgals1  3.29e-90     -0.614 0.84  0.949  1.02e-85 sig   TRUE    
    ##  2 Vim     2.13e-85     -0.620 0.749 0.9    6.63e-81 sig   TRUE    
    ##  3 S100a6  7.15e-82     -0.546 0.935 0.989  2.22e-77 sig   TRUE    
    ##  4 Xist    3.79e-79      0.738 0.646 0.355  1.18e-74 sig   FALSE   
    ##  5 Gm42418 6.03e-79      0.458 0.985 0.967  1.87e-74 sig   FALSE   
    ##  6 Tmsb10  5.77e-76     -0.310 1     1      1.79e-71 sig   FALSE   
    ##  7 Tmsb4x  3.35e-72     -0.217 1     1      1.04e-67 sig   FALSE   
    ##  8 Crip1   2.55e-67     -0.427 0.974 0.997  7.93e-63 sig   TRUE    
    ##  9 Actg1   2.11e-44     -0.288 0.999 1      6.54e-40 sig   FALSE   
    ## 10 Emp3    1.14e-42     -0.299 0.885 0.948  3.55e-38 sig   FALSE   
    ## # … with 5,777 more rows
…
``` r
fgseaRes <- as_tibble(fgsea(pathways=pathways, stats=stats, minSize = 20))
```

    ## Warning in preparePathwaysAndStats(pathways, stats, minSize, maxSize, gseaParam, : There are ties in the preranked stats (0.24% of the list).
    ## The order of those tied genes will be arbitrary, which may produce unexpected results.

    ## Warning in fgseaMultilevel(...): For some pathways, in reality P-values are less
    ## than 1e-10. You can set the `eps` argument to zero for better estimation.

``` r
fgseaRes
```

    ## # A tibble: 4,002 x 8
    ##    pathway                 pval     padj log2err     ES    NES  size leadingEdge
    ##    <chr>                  <dbl>    <dbl>   <dbl>  <dbl>  <dbl> <int> <list>     
    ##  1 GOLDRATH_EFF_VS_ME… 2.09e- 1  4.31e-1  0.249   0.202  1.21     64 <chr [19]> 
    ##  2 GOLDRATH_EFF_VS_ME… 1.49e- 7  1.27e-5  0.690  -0.665 -2.56     31 <chr [11]> 
    ##  3 GOLDRATH_NAIVE_VS_… 8.56e-10  1.63e-7  0.801  -0.684 -2.77     38 <chr [17]> 
    ##  4 GOLDRATH_NAIVE_VS_… 8.84e- 1  9.36e-1  0.0246 -0.155 -0.681    57 <chr [20]> 
    ##  5 GOLDRATH_NAIVE_VS_… 2.38e- 9  3.97e-7  0.775  -0.601 -2.63     55 <chr [25]> 
    ##  6 GOLDRATH_NAIVE_VS_… 2.20e- 1  4.45e-1  0.0934 -0.281 -1.22     52 <chr [17]> 
    ##  7 GSE10094_LCMV_VS_L… 1.39e- 4  2.89e-3  0.519   0.387  2.15     49 <chr [32]> 
    ##  8 GSE10147_IL3_AND_H… 1.73e- 1  3.87e-1  0.117  -0.386 -1.31     20 <chr [8]>  
    ##  9 GSE10147_IL3_VS_IL… 9.66e- 1  9.82e-1  0.0274 -0.153 -0.518    20 <chr [20]> 
    ## 10 GSE10147_IL3_VS_IL… 2.84e- 1  5.14e-1  0.180   0.245  1.14     24 <chr [15]> 
    ## # … with 3,992 more rows
…
``` r
fgseaRes <- as_tibble(fgseaMultilevel(pathways=pathways, stats=stats, minSize = 10 ))
```

    ## Warning in preparePathwaysAndStats(pathways, stats, minSize, maxSize, gseaParam, : There are ties in the preranked stats (0.24% of the list).
    ## The order of those tied genes will be arbitrary, which may produce unexpected results.

``` r
fgseaRes
```

    ## # A tibble: 40 x 8
    ##    pathway                  pval    padj log2err     ES    NES  size leadingEdge
    ##    <chr>                   <dbl>   <dbl>   <dbl>  <dbl>  <dbl> <int> <list>     
    ##  1 HALLMARK_ADIPOGENES…  1.25e-3 7.12e-3  0.455  -0.466 -1.88     42 <chr [26]> 
    ##  2 HALLMARK_ALLOGRAFT_…  3.94e-6 7.87e-5  0.611  -0.523 -2.26     59 <chr [30]> 
    ##  3 HALLMARK_ANDROGEN_R…  2.63e-1 4.05e-1  0.0934 -0.376 -1.21     17 <chr [8]>  
    ##  4 HALLMARK_APICAL_JUN…  8.01e-4 5.34e-3  0.477  -0.557 -1.99     25 <chr [10]> 
    ##  5 HALLMARK_APOPTOSIS    4.60e-1 5.57e-1  0.0590 -0.269 -1.02     31 <chr [16]> 
    ##  6 HALLMARK_COAGULATION  7.73e-2 1.82e-1  0.194  -0.520 -1.48     11 <chr [5]>  
    ##  7 HALLMARK_COMPLEMENT   8.20e-3 4.06e-2  0.381  -0.473 -1.77     29 <chr [13]> 
    ##  8 HALLMARK_DNA_REPAIR   3.39e-1 4.84e-1  0.0713 -0.270 -1.11     47 <chr [23]> 
    ##  9 HALLMARK_E2F_TARGETS  7.82e-1 8.09e-1  0.113   0.158  0.781    33 <chr [8]>  
    ## 10 HALLMARK_EPITHELIAL…  7.33e-5 7.33e-4  0.538  -0.761 -2.16     11 <chr [5]>  
    ## # … with 30 more rows
…
