…
Lets start with getting all the data we need, starting with extracting
the cellcodes plus hashtag identities from the mat object.

``` r
clean.mat@cell_metadata %>% 
  rownames_to_column("cellcode") %>% 
  as_tibble %>% 
  dplyr::select(hash.ID, cellcode) %>% 
  mutate(hash.ID = as.character(hash.ID)) -> hashes

hashes
```

    ## # A tibble: 39,551 x 2
    ##    hash.ID cellcode            
    ##    <chr>   <chr>               
    ##  1 Doublet AAACCCAAGACTCTTG-1_1
    ##  2 Doublet AAACCCAAGCGTGAGT-1_1
    ##  3 Doublet AAACCCACAAATTAGG-1_1
    ##  4 Naive3  AAACCCACAACACGTT-1_1
    ##  5 Naive4  AAACCCACAATTTCTC-1_1
    ##  6 Naive4  AAACCCACACTCAAGT-1_1
    ##  7 DR7.GFP AAACCCAGTGCTCGTG-1_1
    ##  8 Doublet AAACCCATCCATAAGC-1_1
    ##  9 DR7.GFP AAACGAAAGAAGAGCA-1_1
    ## 10 Naive4  AAACGAAAGTCGGCCT-1_1
    ## # … with 39,541 more rows

Next we’ll retrieve the metacell-cellcode pairing information from the
mc object, using enframe() to get a dataframe, and subsequently join it
to the hashtag table.

``` r
enframe(mc@mc, "cellcode", "MC") %>% 
  left_join(hashes) %>% 
  mutate(MC = factor(MC)) -> hashes.MCs

hashes.MCs
```

    ## # A tibble: 27,559 x 3
    ##    cellcode             MC    hash.ID
    ##    <chr>                <fct> <chr>  
    ##  1 AAACCCACAACACGTT-1_1 14    Naive3 
    ##  2 AAACCCACAATTTCTC-1_1 16    Naive4 
    ##  3 AAACCCACACTCAAGT-1_1 16    Naive4 
    ##  4 AAACCCAGTGCTCGTG-1_1 23    DR7.GFP
    ##  5 AAACGAAAGAAGAGCA-1_1 1     DR7.GFP
    ##  6 AAACGAAAGTCGGCCT-1_1 12    Naive4 
    ##  7 AAACGAACACCTGCTT-1_1 12    DR6.GFP
    ##  8 AAACGAACAGCCGTCA-1_1 20    Naive3 
    ##  9 AAACGAAGTCACTACA-1_1 16    DR7.GFP
    ## 10 AAACGAAGTGCTATTG-1_1 13    Naive3 
    ## # … with 27,549 more rows
…
``` r
hashes.MCs %>%
  # first filter unused cells and for HTO1-4, remove NAs
  filter(!(cellcode %in% as.character(clean.mat@ignore_cells))) %>%
  filter(hash.ID %in% hash.tags & !is.na(MC)) %>%
  # count MCs by HTO
  dplyr::count(MC, hash.ID) -> counts.per.MC

counts.per.MC
```

    ## # A tibble: 276 x 3
    ##    MC    hash.ID      n
    ##    <fct> <chr>    <int>
    ##  1 1     DR1.GFP     63
    ##  2 1     DR1.RFP    112
    ##  3 1     DR2.GFP    283
    ##  4 1     DR2.RFP    320
    ##  5 1     DR3.GFP     22
    ##  6 1     DR3.RFP     25
    ##  7 1     DR4.GFP     29
    ##  8 1     DR45.RFP    21
    ##  9 1     DR5.GFP     44
    ## 10 1     DR6.GFP     82
    ## # … with 266 more rows
…
counts.per.MC.corrected
```

    ## # A tibble: 230 x 3
    ## # Groups:   MC [23]
    ##    MC    hash.ID  cor.count
    ##    <fct> <fct>        <dbl>
    ##  1 1     DR1.GFP        63 
    ##  2 1     DR1.RFP       112 
    ##  3 1     DR2.GFP       283 
    ##  4 1     DR2.RFP       320 
    ##  5 1     DR3.GFP        22 
    ##  6 1     DR3.RFP        25 
    ##  7 1     DR45.GFP      179.
    ##  8 1     DR45.RFP       21 
    ##  9 1     DR67.GFP      357.
    ## 10 1     DR67.RFP       17 
    ## # … with 220 more rows
…
lab.ratios
```

    ## # A tibble: 23 x 2
    ##    MC    lab.ratio
    ##    <fct>     <dbl>
    ##  1 1         1.02 
    ##  2 2         0.852
    ##  3 3         0.989
    ##  4 4         1.00 
    ##  5 5         1.12 
    ##  6 6         1.16 
    ##  7 7         0.976
    ##  8 8         1.19 
    ##  9 9         1.06 
    ## 10 10        1.06 
    ## # … with 13 more rows

As a final touch, we’ll add the MetaCell phenotype clusters to the
tibble, so we can show that information in the plots.

``` r
lab.ratios %>% 
  mutate(cluster = factor(fct_collapse(.$MC,
                                Tcm_eff = c('23','15','22','8','6','10','4','5','7','18'),
                                Tcm_mult = c('9','1','12','13','14','16','11','2','3'),
                                Tem = c('21','19','17','20')), 
                          levels = c("Tem", "Tcm_eff", "Tcm_mult")  )  ) -> lab.ratios
lab.ratios
```

    ## # A tibble: 23 x 3
    ##    MC    lab.ratio cluster 
    ##    <fct>     <dbl> <fct>   
    ##  1 1         1.02  Tcm_mult
    ##  2 2         0.852 Tcm_mult
    ##  3 3         0.989 Tcm_mult
    ##  4 4         1.00  Tcm_eff 
    ##  5 5         1.12  Tcm_eff 
    ##  6 6         1.16  Tcm_eff 
    ##  7 7         0.976 Tcm_eff 
    ##  8 8         1.19  Tcm_eff 
    ##  9 9         1.06  Tcm_mult
    ## 10 10        1.06  Tcm_eff 
    ## # … with 13 more rows
…
