…
``` r
clean_mat@cell_metadata %>% 
  rownames_to_column("cellcode") %>% 
  dplyr::select(hash.ID, cellcode) %>% 
  mutate(hash.ID = as.character(hash.ID)) %>% 
  as_tibble() -> cells.df

cells.df
```

    ## # A tibble: 39,551 x 2
    ##    hash.ID cellcode            
    ##    <chr>   <chr>               
    ##  1 Doublet AAACCCAAGACTCTTG-1_1
    ##  2 Doublet AAACCCAAGCGTGAGT-1_1
    ##  3 Doublet AAACCCACAAATTAGG-1_1
    ##  4 Naive3  AAACCCACAACACGTT-1_1
    ##  5 Naive4  AAACCCACAATTTCTC-1_1
    ##  6 Naive4  AAACCCACACTCAAGT-1_1
    ##  7 DR7.GFP AAACCCAGTGCTCGTG-1_1
    ##  8 Doublet AAACCCATCCATAAGC-1_1
    ##  9 DR7.GFP AAACGAAAGAAGAGCA-1_1
    ## 10 Naive4  AAACGAAAGTCGGCCT-1_1
    ## # … with 39,541 more rows

Then we’ll combine the cellcode, hashID pairs with the metacell-IDs.
We’re only interested in cells that were assigned MetaCells.

``` r
enframe(mc@mc, "cellcode", "MC") %>% 
  left_join(cells.df) %>% 
  mutate(MC = factor(MC)) -> cells.df

cells.df
```

    ## # A tibble: 27,559 x 3
    ##    cellcode             MC    hash.ID
    ##    <chr>                <fct> <chr>  
    ##  1 AAACCCACAACACGTT-1_1 14    Naive3 
    ##  2 AAACCCACAATTTCTC-1_1 16    Naive4 
    ##  3 AAACCCACACTCAAGT-1_1 16    Naive4 
    ##  4 AAACCCAGTGCTCGTG-1_1 23    DR7.GFP
    ##  5 AAACGAAAGAAGAGCA-1_1 1     DR7.GFP
    ##  6 AAACGAAAGTCGGCCT-1_1 12    Naive4 
    ##  7 AAACGAACACCTGCTT-1_1 12    DR6.GFP
    ##  8 AAACGAACAGCCGTCA-1_1 20    Naive3 
    ##  9 AAACGAAGTCACTACA-1_1 16    DR7.GFP
    ## 10 AAACGAAGTGCTATTG-1_1 13    Naive3 
    ## # … with 27,549 more rows
…
``` r
(hash.tags <- grep(pattern = "DR[4|5|6|7]\\.GFP|Naive", x = unique(cells.df$hash.ID), value = T))
```

    ## [1] "Naive3"  "Naive4"  "DR7.GFP" "DR6.GFP" "DR4.GFP" "DR5.GFP" "Naive2" 
    ## [8] "Naive1"

``` r
cells.df %>%
  filter(hash.ID %in% hash.tags & !is.na(MC)) -> cells.df

cells.df
```

    ## # A tibble: 14,443 x 3
    ##    cellcode             MC    hash.ID
    ##    <chr>                <fct> <chr>  
    ##  1 AAACCCACAACACGTT-1_1 14    Naive3 
    ##  2 AAACCCACAATTTCTC-1_1 16    Naive4 
    ##  3 AAACCCACACTCAAGT-1_1 16    Naive4 
    ##  4 AAACCCAGTGCTCGTG-1_1 23    DR7.GFP
    ##  5 AAACGAAAGAAGAGCA-1_1 1     DR7.GFP
    ##  6 AAACGAAAGTCGGCCT-1_1 12    Naive4 
    ##  7 AAACGAACACCTGCTT-1_1 12    DR6.GFP
    ##  8 AAACGAACAGCCGTCA-1_1 20    Naive3 
    ##  9 AAACGAAGTCACTACA-1_1 16    DR7.GFP
    ## 10 AAACGAAGTGCTATTG-1_1 13    Naive3 
    ## # … with 14,433 more rows
Next, we can count the cells for each MC, hashID combination. And
calculate a normalized count by dividing each count by the total count
within each hashID.

``` r
cells.df %>% 
  dplyr::count(MC, hash.ID) %>%
  group_by(hash.ID)%>%
  mutate(normalized.count = (n/sum(n))*1000 ) %>%
  ungroup() -> cell.counts

cell.counts
```

    ## # A tibble: 184 x 4
    ##    MC    hash.ID     n normalized.count
    ##    <fct> <chr>   <int>            <dbl>
    ##  1 1     DR4.GFP    29            16.6 
    ##  2 1     DR5.GFP    44            22.9 
    ##  3 1     DR6.GFP    82            45.0 
    ##  4 1     DR7.GFP    48            27.4 
    ##  5 1     Naive1     12            10.1 
    ##  6 1     Naive2     12             9.10
    ##  7 1     Naive3     68            24.9 
    ##  8 1     Naive4     43            21.9 
    ##  9 2     DR4.GFP    20            11.4 
    ## 10 2     DR5.GFP    28            14.6 
    ## # … with 174 more rows
…
cell.counts %>% 
  mutate(cluster = fct_collapse(.$MC,
                                eff = c('23','15','22','8','6','10','4','5','7','18'),
                                mult = c('9','1','12','13','14','16','11','2','3'),
                                term = c('21','19','17','20')),
         phenotype = fct_collapse(.$MC,
                                TCM = c('23','15','22','8','6','10','4','5','7','18','9','1','12','13','14','16','11','2','3'),
                                TEM = c('21','19','17','20')), 
         origin = fct_collapse(.$hash.ID,
                              Naive = c('Naive1', 'Naive2', 'Naive3', 'Naive4'),
                              Pre = c('DR4.GFP','DR5.GFP','DR6.GFP','DR7.GFP'))  ) -> cell.counts
cell.counts
```

    ## # A tibble: 184 x 7
    ##    MC    hash.ID     n normalized.count cluster phenotype origin
    ##    <fct> <chr>   <int>            <dbl> <fct>   <fct>     <fct> 
    ##  1 1     DR4.GFP    29            16.6  mult    TCM       Pre   
    ##  2 1     DR5.GFP    44            22.9  mult    TCM       Pre   
    ##  3 1     DR6.GFP    82            45.0  mult    TCM       Pre   
    ##  4 1     DR7.GFP    48            27.4  mult    TCM       Pre   
    ##  5 1     Naive1     12            10.1  mult    TCM       Naive 
    ##  6 1     Naive2     12             9.10 mult    TCM       Naive 
    ##  7 1     Naive3     68            24.9  mult    TCM       Naive 
    ##  8 1     Naive4     43            21.9  mult    TCM       Naive 
    ##  9 2     DR4.GFP    20            11.4  mult    TCM       Pre   
    ## 10 2     DR5.GFP    28            14.6  mult    TCM       Pre   
    ## # … with 174 more rows
…
``` r
cell.counts %>% 
  filter(phenotype == "TCM") %>% 
  # MC now contains empty levels, lets drop those
  mutate(MC = fct_drop(MC)) %>% 
  group_by(hash.ID) %>% 
  mutate(norm.norm.counts = (normalized.count/sum(normalized.count))*1000 ) -> Tcm.counts

Tcm.counts
```

    ## # A tibble: 152 x 8
    ## # Groups:   hash.ID [8]
    ##    MC    hash.ID     n normalized.count cluster phenotype origin
    ##    <fct> <chr>   <int>            <dbl> <fct>   <fct>     <fct> 
    ##  1 1     DR4.GFP    29            16.6  mult    TCM       Pre   
    ##  2 1     DR5.GFP    44            22.9  mult    TCM       Pre   
    ##  3 1     DR6.GFP    82            45.0  mult    TCM       Pre   
    ##  4 1     DR7.GFP    48            27.4  mult    TCM       Pre   
    ##  5 1     Naive1     12            10.1  mult    TCM       Naive 
    ##  6 1     Naive2     12             9.10 mult    TCM       Naive 
    ##  7 1     Naive3     68            24.9  mult    TCM       Naive 
    ##  8 1     Naive4     43            21.9  mult    TCM       Naive 
    ##  9 2     DR4.GFP    20            11.4  mult    TCM       Pre   
    ## 10 2     DR5.GFP    28            14.6  mult    TCM       Pre   
    ## # … with 142 more rows, and 1 more variable: norm.norm.counts <dbl>
…
